CORY_0: Visualizing multi-sensor data streams
…
  # The data from each file is put in order of the 
  # files, so lets make sure they are in a predic-
  # table order again.
  arrange(source, time, sensor)

# we now have a single data frame containing all the
# measurements of each of the data files in the 'data'
# folder.
data

# A tibble: 4,417 × 4
   source                    time                sensor    value
   <chr>                     <dttm>              <chr>     <dbl>
 1 data/ylab1_1666387659.csv 1970-01-01 02:00:08 Yeda0     2.46 
 2 data/ylab1_1666387659.csv 1970-01-01 02:00:08 Yema_ads0 0.368
 3 data/ylab1_1666387659.csv 1970-01-01 02:00:08 Yema_ads0 0.364
 4 data/ylab1_1666387659.csv 1970-01-01 02:00:08 Yema_ads0 0.361
 5 data/ylab1_1666387659.csv 1970-01-01 02:00:08 Yema_ads0 0.360
 6 data/ylab1_1666387659.csv 1970-01-01 02:00:08 Yema_ads0 0.359
 7 data/ylab1_1666387659.csv 1970-01-01 02:00:08 Yema_ads0 0.359
 8 data/ylab1_1666387659.csv 1970-01-01 02:00:08 Yema_ads0 0.358
 9 data/ylab1_1666387659.csv 1970-01-01 02:00:08 Yema_ads0 0.359
10 data/ylab1_1666387659.csv 1970-01-01 02:00:08 Yeda0     4.27 
# … with 4,407 more rows
…
